%YAML 1.1
%TAG !u! tag:unity3d.com,2011:
--- !u!74 &7400000
AnimationClip:
  m_ObjectHideFlags: 0
  m_CorrespondingSourceObject: {fileID: 0}
  m_PrefabInstance: {fileID: 0}
  m_PrefabAsset: {fileID: 0}
  m_Name: death_ella
  serializedVersion: 6
  m_Legacy: 0
  m_Compressed: 0
  m_UseHighQualityCurve: 1
  m_RotationCurves: []
  m_CompressedRotationCurves: []
  m_EulerCurves: []
  m_PositionCurves: []
  m_ScaleCurves: []
  m_FloatCurves: []
  m_PPtrCurves:
  - curve:
    - time: 0
      value: {fileID: 3992322647483227044, guid: 992faf9ea98c43749823829ecf833f53, type: 3}
    - time: 0.083333336
      value: {fileID: 8169015339720927308, guid: 992faf9ea98c43749823829ecf833f53, type: 3}
    - time: 0.16666667
      value: {fileID: 2605731735491676196, guid: 992faf9ea98c43749823829ecf833f53, type: 3}
    - time: 0.25
      value: {fileID: 996817532188544913, guid: 992faf9ea98c43749823829ecf833f53, type: 3}
    - time: 0.33333334
      value: {fileID: 2975273625775897307, guid: 992faf9ea98c43749823829ecf833f53, type: 3}
    - time: 0.41666666
      value: {fileID: 6456857070154040332, guid: 992faf9ea98c43749823829ecf833f53, type: 3}
    - time: 0.5
      value: {fileID: -4855252585561106233, guid: 992faf9ea98c43749823829ecf833f53, type: 3}
    - time: 0.5833333
      value: {fileID: 7853457250296132577, guid: 992faf9ea98c43749823829ecf833f53, type: 3}
    - time: 0.6666667
      value: {fileID: 3109861996483673396, guid: 992faf9ea98c43749823829ecf833f53, type: 3}
    - time: 0.75
      value: {fileID: 282896115093719889, guid: 992faf9ea98c43749823829ecf833f53, type: 3}
    - time: 0.8333333
      value: {fileID: 3315444316452101767, guid: 992faf9ea98c43749823829ecf833f53, type: 3}
    - time: 0.9166667
      value: {fileID: 8981075370708940268, guid: 992faf9ea98c43749823829ecf833f53, type: 3}
    - time: 1
      value: {fileID: 8980202069564898480, guid: 992faf9ea98c43749823829ecf833f53, type: 3}
    - time: 1.0833334
      value: {fileID: -3779126820910738047, guid: 992faf9ea98c43749823829ecf833f53, type: 3}
    attribute: m_Sprite
    path: 
    classID: 212
    script: {fileID: 0}
  m_SampleRate: 12
  m_WrapMode: 0
  m_Bounds:
    m_Center: {x: 0, y: 0, z: 0}
    m_Extent: {x: 0, y: 0, z: 0}
  m_ClipBindingConstant:
    genericBindings:
    - serializedVersion: 2
      path: 0
      attribute: 0
      script: {fileID: 0}
      typeID: 212
      customType: 23
      isPPtrCurve: 1
    pptrCurveMapping:
    - {fileID: 3992322647483227044, guid: 992faf9ea98c43749823829ecf833f53, type: 3}
    - {fileID: 8169015339720927308, guid: 992faf9ea98c43749823829ecf833f53, type: 3}
    - {fileID: 2605731735491676196, guid: 992faf9ea98c43749823829ecf833f53, type: 3}
    - {fileID: 996817532188544913, guid: 992faf9ea98c43749823829ecf833f53, type: 3}
    - {fileID: 2975273625775897307, guid: 992faf9ea98c43749823829ecf833f53, type: 3}
    - {fileID: 6456857070154040332, guid: 992faf9ea98c43749823829ecf833f53, type: 3}
    - {fileID: -4855252585561106233, guid: 992faf9ea98c43749823829ecf833f53, type: 3}
    - {fileID: 7853457250296132577, guid: 992faf9ea98c43749823829ecf833f53, type: 3}
    - {fileID: 3109861996483673396, guid: 992faf9ea98c43749823829ecf833f53, type: 3}
    - {fileID: 282896115093719889, guid: 992faf9ea98c43749823829ecf833f53, type: 3}
    - {fileID: 3315444316452101767, guid: 992faf9ea98c43749823829ecf833f53, type: 3}
    - {fileID: 8981075370708940268, guid: 992faf9ea98c43749823829ecf833f53, type: 3}
    - {fileID: 8980202069564898480, guid: 992faf9ea98c43749823829ecf833f53, type: 3}
    - {fileID: -3779126820910738047, guid: 992faf9ea98c43749823829ecf833f53, type: 3}
  m_AnimationClipSettings:
    serializedVersion: 2
    m_AdditiveReferencePoseClip: {fileID: 0}
    m_AdditiveReferencePoseTime: 0
    m_StartTime: 0
    m_StopTime: 1.1666667
    m_OrientationOffsetY: 0
    m_Level: 0
    m_CycleOffset: 0
    m_HasAdditiveReferencePose: 0
    m_LoopTime: 0
    m_LoopBlend: 0
    m_LoopBlendOrientation: 0
    m_LoopBlendPositionY: 0
    m_LoopBlendPositionXZ: 0
    m_KeepOriginalOrientation: 0
    m_KeepOriginalPositionY: 1
    m_KeepOriginalPositionXZ: 0
    m_HeightFromFeet: 0
    m_Mirror: 0
  m_EditorCurves: []
  m_EulerEditorCurves: []
  m_HasGenericRootTransform: 0
  m_HasMotionFloatCurves: 0
  m_Events: []
