%YAML 1.1
%TAG !u! tag:unity3d.com,2011:
--- !u!74 &7400000
AnimationClip:
  m_ObjectHideFlags: 0
  m_CorrespondingSourceObject: {fileID: 0}
  m_PrefabInstance: {fileID: 0}
  m_PrefabAsset: {fileID: 0}
  m_Name: idle_el
  serializedVersion: 6
  m_Legacy: 0
  m_Compressed: 0
  m_UseHighQualityCurve: 1
  m_RotationCurves: []
  m_CompressedRotationCurves: []
  m_EulerCurves: []
  m_PositionCurves: []
  m_ScaleCurves: []
  m_FloatCurves: []
  m_PPtrCurves:
  - curve:
    - time: 0
      value: {fileID: 176597588376155818, guid: 5db062512ffcecb4e9d13e01361965de, type: 3}
    - time: 0.083333336
      value: {fileID: 7998051566947898702, guid: 5db062512ffcecb4e9d13e01361965de, type: 3}
    - time: 0.16666667
      value: {fileID: -9014628797678441517, guid: 5db062512ffcecb4e9d13e01361965de, type: 3}
    - time: 0.25
      value: {fileID: 8936972084257376105, guid: 5db062512ffcecb4e9d13e01361965de, type: 3}
    - time: 0.33333334
      value: {fileID: -2969723328234820627, guid: 5db062512ffcecb4e9d13e01361965de, type: 3}
    - time: 0.41666666
      value: {fileID: 2435840499270082704, guid: 5db062512ffcecb4e9d13e01361965de, type: 3}
    - time: 0.5
      value: {fileID: -7095917975379143864, guid: 5db062512ffcecb4e9d13e01361965de, type: 3}
    - time: 0.5833333
      value: {fileID: -6390339603742381680, guid: 5db062512ffcecb4e9d13e01361965de, type: 3}
    - time: 0.6666667
      value: {fileID: 9168260675709483221, guid: 5db062512ffcecb4e9d13e01361965de, type: 3}
    - time: 0.75
      value: {fileID: -2375335947037951246, guid: 5db062512ffcecb4e9d13e01361965de, type: 3}
    - time: 0.8333333
      value: {fileID: 4313201056994019814, guid: 5db062512ffcecb4e9d13e01361965de, type: 3}
    - time: 0.9166667
      value: {fileID: 8372680793445204000, guid: 5db062512ffcecb4e9d13e01361965de, type: 3}
    - time: 1
      value: {fileID: 30761213527882708, guid: 5db062512ffcecb4e9d13e01361965de, type: 3}
    - time: 1.0833334
      value: {fileID: -6669808180700746629, guid: 5db062512ffcecb4e9d13e01361965de, type: 3}
    - time: 1.1666666
      value: {fileID: 3537884515722315982, guid: 5db062512ffcecb4e9d13e01361965de, type: 3}
    - time: 1.25
      value: {fileID: -6002562628878295304, guid: 5db062512ffcecb4e9d13e01361965de, type: 3}
    - time: 1.3333334
      value: {fileID: -3777875300866184040, guid: 5db062512ffcecb4e9d13e01361965de, type: 3}
    - time: 1.4166666
      value: {fileID: 5495448624554858052, guid: 5db062512ffcecb4e9d13e01361965de, type: 3}
    - time: 1.5
      value: {fileID: 4751058573704797696, guid: 5db062512ffcecb4e9d13e01361965de, type: 3}
    - time: 1.5833334
      value: {fileID: -7612270475498364853, guid: 5db062512ffcecb4e9d13e01361965de, type: 3}
    - time: 1.6666666
      value: {fileID: -6267400506371145294, guid: 5db062512ffcecb4e9d13e01361965de, type: 3}
    - time: 1.75
      value: {fileID: -6183225267735435745, guid: 5db062512ffcecb4e9d13e01361965de, type: 3}
    attribute: m_Sprite
    path: 
    classID: 212
    script: {fileID: 0}
  m_SampleRate: 12
  m_WrapMode: 0
  m_Bounds:
    m_Center: {x: 0, y: 0, z: 0}
    m_Extent: {x: 0, y: 0, z: 0}
  m_ClipBindingConstant:
    genericBindings:
    - serializedVersion: 2
      path: 0
      attribute: 0
      script: {fileID: 0}
      typeID: 212
      customType: 23
      isPPtrCurve: 1
    pptrCurveMapping:
    - {fileID: 176597588376155818, guid: 5db062512ffcecb4e9d13e01361965de, type: 3}
    - {fileID: 7998051566947898702, guid: 5db062512ffcecb4e9d13e01361965de, type: 3}
    - {fileID: -9014628797678441517, guid: 5db062512ffcecb4e9d13e01361965de, type: 3}
    - {fileID: 8936972084257376105, guid: 5db062512ffcecb4e9d13e01361965de, type: 3}
    - {fileID: -2969723328234820627, guid: 5db062512ffcecb4e9d13e01361965de, type: 3}
    - {fileID: 2435840499270082704, guid: 5db062512ffcecb4e9d13e01361965de, type: 3}
    - {fileID: -7095917975379143864, guid: 5db062512ffcecb4e9d13e01361965de, type: 3}
    - {fileID: -6390339603742381680, guid: 5db062512ffcecb4e9d13e01361965de, type: 3}
    - {fileID: 9168260675709483221, guid: 5db062512ffcecb4e9d13e01361965de, type: 3}
    - {fileID: -2375335947037951246, guid: 5db062512ffcecb4e9d13e01361965de, type: 3}
    - {fileID: 4313201056994019814, guid: 5db062512ffcecb4e9d13e01361965de, type: 3}
    - {fileID: 8372680793445204000, guid: 5db062512ffcecb4e9d13e01361965de, type: 3}
    - {fileID: 30761213527882708, guid: 5db062512ffcecb4e9d13e01361965de, type: 3}
    - {fileID: -6669808180700746629, guid: 5db062512ffcecb4e9d13e01361965de, type: 3}
    - {fileID: 3537884515722315982, guid: 5db062512ffcecb4e9d13e01361965de, type: 3}
    - {fileID: -6002562628878295304, guid: 5db062512ffcecb4e9d13e01361965de, type: 3}
    - {fileID: -3777875300866184040, guid: 5db062512ffcecb4e9d13e01361965de, type: 3}
    - {fileID: 5495448624554858052, guid: 5db062512ffcecb4e9d13e01361965de, type: 3}
    - {fileID: 4751058573704797696, guid: 5db062512ffcecb4e9d13e01361965de, type: 3}
    - {fileID: -7612270475498364853, guid: 5db062512ffcecb4e9d13e01361965de, type: 3}
    - {fileID: -6267400506371145294, guid: 5db062512ffcecb4e9d13e01361965de, type: 3}
    - {fileID: -6183225267735435745, guid: 5db062512ffcecb4e9d13e01361965de, type: 3}
  m_AnimationClipSettings:
    serializedVersion: 2
    m_AdditiveReferencePoseClip: {fileID: 0}
    m_AdditiveReferencePoseTime: 0
    m_StartTime: 0
    m_StopTime: 1.8333334
    m_OrientationOffsetY: 0
    m_Level: 0
    m_CycleOffset: 0
    m_HasAdditiveReferencePose: 0
    m_LoopTime: 1
    m_LoopBlend: 0
    m_LoopBlendOrientation: 0
    m_LoopBlendPositionY: 0
    m_LoopBlendPositionXZ: 0
    m_KeepOriginalOrientation: 0
    m_KeepOriginalPositionY: 1
    m_KeepOriginalPositionXZ: 0
    m_HeightFromFeet: 0
    m_Mirror: 0
  m_EditorCurves: []
  m_EulerEditorCurves: []
  m_HasGenericRootTransform: 0
  m_HasMotionFloatCurves: 0
  m_Events: []
